535993 650668 509
449142 564558 470
337872 425477 449
630543 98267 509
814004 258135 509
257955 323640 407
311341 333687 384
976517 984555 427
603251 579922 434
327474 398642 441
243056 532936 470
629905 642935 416
508838 306684 449
904946 837392 525
859678 691391 525
353509 782666 509
388616 318874 441
608136 100819 470
711321 335713 509
771269 161977 509
82110 775587 509
464229 157494 449
401972 933787 525
607899 720150 509
556749 476744 470
735809 381510 509
459227 311675 449
184276 303458 443
845206 852112 419
468276 210064 449
415878 959571 525
938811 260089 525
925912 722616 525
211346 335934 443
968714 475058 525
231808 954301 525
242392 707244 509
651618 375821 509
454525 900953 525
507529 772901 509
357267 703455 509
313424 75263 443
787964 439804 509
216116 719164 509
992782 386305 525
716727 173802 509
729372 197685 509
203938 690855 509
189642 225380 386
483598 779274 509
213687 430810 449
906177 724884 525
150365 942386 525
711903 732173 411
343027 223140 443
138824 560585 470
900431 39321 525
57725 118565 354
659327 304961 509
657727 821565 504
912943 854078 476
2510 138907 354
206854 809849 509
246499 982212 525
869873 332707 525
967895 531533 525
923791 979110 507
99966 177211 383
727242 376892 509
315070 33047 443
737828 619372 509
47389 568935 470
413544 779063 509
621659 293628 470
488958 919942 525
311446 772407 509
621578 905169 525
602552 536129 452
537754 417322 470
893732 228475 525
785522 734578 468
654700 354668 509
742076 821775 468
554170 657793 509
657 194037 383
776449 301467 509
361900 35122 443
60079 577468 470
505261 344799 449
164249 725237 509
94590 622679 470
729784 8589 509
102145 806216 509
402531 476438 449
237877 371317 441
556256 515850 452
203323 244144 443
996803 644539 525
488671 538029 470
991906 923515 507
273594 212638 443
196049 343405 443
115368 117492 349
695999 63020 509
741902 230121 509
98229 481745 449
64178 41381 340
953848 785422 525
291199 919629 525
466482 546816 470
350266 744724 509
656623 725800 504
878969 342727 525
22947 187531 383
327455 784212 509
116989 570817 470
358728 446169 449
907165 67045 525
441026 474661 444
474164 311297 449
632232 336271 509
633400 688167 442
351511 63816 443
679904 145579 509
160211 4090 383
301773 871041 525
361162 139642 443
437973 184005 449
763171 602657 509
891130 826978 525
149811 950017 525
674422 357129 509
287745 715872 509
360742 819808 509
368412 476687 449
465328 921832 525
864320 615835 525
249657 902975 525
79324 599958 470
327331 400641 441
344260 319834 384
523365 615794 452
322504 263477 407
639424 367085 509
239628 87598 443
341760 382891 441
638432 33384 509
385415 730186 509
982677 95903 525
468823 812474 509
794764 22733 509
624568 484073 470
644404 558106 509
155055 960131 525
662767 104018 509
601010 292590 470
389153 438787 449
988643 142989 525
966496 113895 525
716013 308980 509
810980 801687 406
577858 419298 470
984068 436877 525
774444 717147 468
129733 235215 443
239731 276894 407
31970 761234 509
97415 14443 351
474453 695220 509
75438 262981 443
51393 414401 449
313169 346079 441
30571 982680 525
618321 622279 372
838725 324022 525
909509 938330 476
836384 636568 504
409136 271310 441
309022 766330 509
971495 832542 525
125999 734938 509
222776 767066 509
673577 733219 504
62964 120812 354
170643 38982 383
170631 495304 449
782915 863407 525
303197 355955 441
222083 870229 525
524045 758494 509
153635 30326 375
485653 80792 449
837741 367674 509
889819 499393 525
594880 635942 509
795340 402137 509
615880 449074 470
534578 935713 525
297037 792675 509
287359 407039 441
637116 54258 509
503278 547186 470
788308 913319 525
518928 270719 470
573181 896423 525
260321 804146 509
770953 510389 509
506144 49858 449
4417 860814 525
897180 692646 525
900033 619341 525
433830 514587 470
351245 172552 443
519912 727981 509
732375 210237 509
771567 184257 509
190671 11688 383
663119 255350 509
66512 160943 383
470315 508137 426
368951 907582 525
87222 201511 383
451161 432919 400
671938 573561 509
671483 269833 509
324189 839305 525
359593 98887 443
632291 370339 509
229361 64035 386
6725 562056 470
729062 25156 509
286080 145443 443
851753 338086 525
363974 993277 525
90227 774558 509
35338 127160 354
193756 783110 509
24697 1303 282
43260 85959 351
928704 119852 525
928907 35641 525
563408 397884 470
818310 42137 509
345663 850693 525
834458 695193 504
850410 273282 525
814830 303423 509
269082 176222 443
665411 310743 509
253320 731680 509
